DengAI_nalocf
…
# Store X and Y for later use.
x = trainData[, 1:24]
y = trainData$total_cases

rm(iq, sj, df, trainRowNumbers)

DESCRIPTIVE STATISTICS

Training Data Only

library(skimr)
skimmed <- skim_to_wide(trainData[,c(-1,-4)])
skimmed

## # A tibble: 23 x 13
##    type   variable   missing complete n     mean   sd    p0    p25   p50  
##    <chr>  <chr>      <chr>   <chr>    <chr> <chr>  <chr> <chr> <chr> <chr>
##  1 integ~ total_cas~ 0       750      750   "  34~ 53.04 0     "   ~ 19   
##  2 integ~ weekofyear 0       750      750   "  26~ 15.09 1     "  1~ 27   
##  3 integ~ year       0       750      750   1999.~ " 5.~ 1990  1994~ 1999 
##  4 numer~ ndvi_ne    156     594      750   "  0.~ " 0.~ " -0~ "  0~ "  0~
##  5 numer~ ndvi_nw    41      709      750   "  0.~ " 0.~ " -0~ "  0~ "  0~
##  6 numer~ ndvi_se    16      734      750   "  0.~ " 0.~ " -0~ "  0~ "  0~
##  7 numer~ ndvi_sw    16      734      750   "  0.~ " 0.~ " -0~ "  0~ "  0~
##  8 numer~ precipita~ 8       742      750   " 36.~ "46.~ "  0~ "  0~ " 20~
##  9 numer~ reanalysi~ 5       745      750   "299.~ " 1.~ "295~ "298~ "299~
## 10 numer~ reanalysi~ 5       745      750   "299.~ " 1.~ "296~ "298~ "299~
## # ... with 13 more rows, and 3 more variables: p75 <chr>, p100 <chr>,
## #   hist <chr>
…
